7 Exam 2 – COMP/STAT112 Notebook
…
Code
# What does our dataset look like?
head(fc, 22)

# A tibble: 22 × 4
   country   food_category            consumption co2_emmission
   <chr>     <chr>                          <dbl>         <dbl>
 1 Argentina Pork                           10.5          37.2 
 2 Argentina Poultry                        38.7          41.5 
 3 Argentina Beef                           55.5        1712   
 4 Argentina Lamb & Goat                     1.56         54.6 
 5 Argentina Fish                            4.36          6.96
 6 Argentina Eggs                           11.4          10.5 
 7 Argentina Milk - inc. cheese            195.          278.  
 8 Argentina Wheat and Wheat Products      103.           19.7 
 9 Argentina Rice                            8.77         11.2 
10 Argentina Soybeans                        0             0   
# ℹ 12 more rows

The observations in the data seem like they’re countries and food groups, so an observation for each possible combination of food category and country.

Inspecting individual variables

Code
# What are our categories?
distinct(fc, country)

# A tibble: 130 × 1
   country    
   <chr>      
 1 Argentina  
 2 Australia  
 3 Albania    
 4 Iceland    
 5 New Zealand
 6 USA        
 7 Uruguay    
 8 Luxembourg 
 9 Brazil     
10 Kazakhstan 
# ℹ 120 more rows
…
7.3 Most Consuming Countries of Each Food Category

Research Question 2: What are the top 5 countries in terms of consumption of each food group?

Code
# Wrangling dataset to answer our question
fcc |>
  group_by(food_category, country) |>
  summarize(total_consumption = sum(consumption)) |>
  slice_max(n = 5, order_by = total_consumption)

# A tibble: 55 × 3
# Groups:   food_category [11]
   food_category country     total_consumption
   <chr>         <chr>                   <dbl>
 1 Beef          Argentina                55.5
 2 Beef          Brazil                   39.2
 3 Beef          USA                      36.2
 4 Beef          Australia                33.9
 5 Beef          Bermuda                  33.2
 6 Dairy         Finland                 431. 
 7 Dairy         Netherlands             341. 
 8 Dairy         Sweden                  341. 
 9 Dairy         Switzerland             319. 
10 Dairy         Albania                 304. 
# ℹ 45 more rows
…
