14 Reshaping – COMP/STAT112 Notebook
…
Part b

Use your wrangling tools to identify which songs are those above the line in Part a, i.e. with rankings that went up from week 1 to week 2.

billboard |>
  mutate(ratings_increase_wk1to2 = wk2 > wk1) |>
  select(track, artist, ratings_increase_wk1to2)

# A tibble: 317 × 3
   track                   artist         ratings_increase_wk1to2
   <chr>                   <chr>          <lgl>                  
 1 Baby Don't Cry (Keep... 2 Pac          FALSE                  
 2 The Hardest Part Of ... 2Ge+her        FALSE                  
 3 Kryptonite              3 Doors Down   FALSE                  
 4 Loser                   3 Doors Down   FALSE                  
 5 Wobble Wobble           504 Boyz       FALSE                  
 6 Give Me Just One Nig... 98^0           FALSE                  
 7 Dancing Queen           A*Teens        FALSE                  
 8 I Don't Wanna           Aaliyah        FALSE                  
 9 Try Again               Aaliyah        FALSE                  
10 Open My Heart           Adams, Yolanda FALSE                  
# ℹ 307 more rows
…
subjects/people

Part c

pivot_longer()

Exercise 2: Pivot longer

Part a

# For cols, try 2 appproaches: using - and starts_with
sleep_wide |>
  pivot_longer(cols = -Subject, names_to = "day", values_to = "reaction_time")

# A tibble: 180 × 3
   Subject day   reaction_time
     <int> <chr>         <dbl>
 1     308 day_0          250.
 2     308 day_1          259.
 3     308 day_2          251.
 4     308 day_3          321.
 5     308 day_4          357.
 6     308 day_5          415.
 7     308 day_6          382.
 8     308 day_7          290.
 9     308 day_8          431.
10     308 day_9          466.
# ℹ 170 more rows

sleep_wide |>
  pivot_longer(cols = starts_with("day"), names_to = "day", values_to = "reaction_time")

# A tibble: 180 × 3
   Subject day   reaction_time
     <int> <chr>         <dbl>
 1     308 day_0          250.
 2     308 day_1          259.
 3     308 day_2          251.
 4     308 day_3          321.
 5     308 day_4          357.
 6     308 day_5          415.
 7     308 day_6          382.
 8     308 day_7          290.
 9     308 day_8          431.
10     308 day_9          466.
# ℹ 170 more rows
…
